module qris-tools/dev

go 1.16

require (
	github.com/disintegration/imaging v1.6.2
	github.com/phpdave11/gofpdi v1.0.13 // indirect
	github.com/pkg/errors v0.9.1 // indirect
	github.com/signintech/gopdf v0.9.15
)
